{
  "spec_dir": "spec",
  "spec_files": [
    "../lib/src/**/*[sS]pec.js"
  ],
  "helpers": [
    "./helpers/babel.js",
    "./helpers/**/*.js"
  ],
  "stopSpecOnExpectationFailure": false,
  "random": false,
  "timeout": 30000
}
